<svg xmlns="http://www.w3.org/2000/svg" width="250" height="63.872">
    <path d="M7.144 63.87C3.216 63.87 0 60.657 0 56.728V7.143C0 3.215 3.215 0 7.144 0h235.713C246.785 0 250 3.215 250 7.143v49.585c0 3.929-3.215 7.144-7.143 7.144z" fill="#e20612"/>
    <path d="M133.55 40.628c-4.547.213-6.95-2.687-6.95-7.116V17.914c0-.37.304-.675.675-.675h3.022c.373 0 .676.304.676.675v15.598c0 2.144.865 3.053 2.576 3.13a.675.675 0 0 1 .645.673v2.64a.675.675 0 0 1-.645.673m-60.709-9.81v9.122a.675.675 0 0 1-.673.673h-2.962a.676.676 0 0 1-.674-.674v-9.22c0-.953-.325-3.222-3.164-3.222-1.892 0-3.264 1.315-3.264 3.223v9.22a.674.674 0 0 1-.67.673h-2.964a.676.676 0 0 1-.673-.674v-9.123c0-4.304 3.002-7.558 7.571-7.558 4.699 0 7.473 3.123 7.473 7.558m147.454-.069v9.078a.672.672 0 0 1-.67.671h-2.975a.675.675 0 0 1-.67-.67v-9.177c0-.947-.33-3.204-3.175-3.204-1.898 0-3.271 1.308-3.271 3.204v9.176a.674.674 0 0 1-.674.671h-2.973a.674.674 0 0 1-.671-.67v-9.079c0-4.285 3.01-7.522 7.59-7.522 4.71 0 7.489 3.107 7.489 7.522m-63.097 1.113c.098-2.878 2.093-4.84 4.58-4.84 1.373 0 2.551.555 3.337 1.504zm12.77-2.131c-.99-4.163-4.273-6.505-8.158-6.505-4.777 0-8.636 3.991-8.636 8.866 0 4.873 3.86 8.799 8.636 8.799 3.791 0 6.591-1.905 7.813-4.815a.67.67 0 0 0-.613-.942h-3.286a.669.669 0 0 0-.554.29c-.763 1.142-2.091 1.67-3.392 1.67-1.474 0-2.75-.654-3.6-1.798l11.397-4.788a.673.673 0 0 0 .394-.777m-31.005 2.13c.1-2.877 2.095-4.84 4.58-4.84 1.373 0 2.551.556 3.338 1.505zm12.773-2.13c-.99-4.163-4.276-6.505-8.16-6.505-4.775 0-8.637 3.991-8.637 8.865 0 4.873 3.862 8.8 8.637 8.8 3.793 0 6.593-1.905 7.815-4.815a.673.673 0 0 0-.615-.942h-3.287a.663.663 0 0 0-.553.29c-.763 1.14-2.092 1.67-3.393 1.67-1.471 0-2.747-.654-3.598-1.798l11.397-4.79a.675.675 0 0 0 .394-.775m83.301 2.394c0-2.684-1.93-4.842-4.32-4.842-2.386 0-4.316 2.06-4.316 4.842 0 2.68 1.93 4.741 4.316 4.741 2.39 0 4.32-2.125 4.32-4.741m4.319-.033v7.557c0 5.593-3.336 9.093-8.734 9.093-3.712 0-6.93-1.944-7.951-5.006a.673.673 0 0 1 .636-.885h3.439a.67.67 0 0 1 .57.322c.682 1.105 2.226 1.544 3.306 1.544 3.042 0 4.415-1.996 4.415-5.003v-.754c-1.277 1.243-3.01 1.898-4.906 1.898-4.45 0-8.08-3.926-8.08-8.767 0-4.875 3.566-8.865 8.665-8.865 5.074 0 8.64 3.99 8.64 8.865m-35.896-7.77a.675.675 0 0 0-.673-.67h-2.975a.675.675 0 0 0-.673.67v15.505c0 .37.304.672.673.672h2.975a.675.675 0 0 0 .673-.67zm-2.16-7.08c-1.21 0-2.192.947-2.192 2.158v1.75c0 .369.302.67.672.67h3.007a.675.675 0 0 0 .673-.67v-1.75a2.158 2.158 0 0 0-2.16-2.158m-3.95 13.508v9.077a.673.673 0 0 1-.67.672h-2.977a.672.672 0 0 1-.67-.67v-9.177c0-.947-.327-3.205-3.174-3.205-1.894 0-3.272 1.31-3.272 3.205v9.176c0 .369-.3.671-.67.671h-2.974a.674.674 0 0 1-.671-.67v-9.177c0-.947-.296-3.205-3.14-3.205-1.933 0-3.272 1.31-3.272 3.205v9.176a.675.675 0 0 1-.673.671h-2.975a.674.674 0 0 1-.67-.67v-9.08c0-4.284 2.978-7.522 7.59-7.522 2.29 0 4.154.916 5.363 2.388 1.277-1.473 3.173-2.388 5.366-2.388 4.709 0 7.49 3.108 7.49 7.522m-79.307 9.766c-4.524.213-6.912-2.674-6.912-7.082V17.91a.67.67 0 0 1 .67-.671h3.007a.67.67 0 0 1 .671.67v15.52c0 2.135.862 3.04 2.566 3.117a.67.67 0 0 1 .64.67v2.624a.673.673 0 0 1-.64.672M97.152 31.86c.098-2.878 2.094-4.842 4.58-4.842 1.373 0 2.552.556 3.336 1.506zm12.771-2.131c-.99-4.163-4.274-6.505-8.158-6.505-4.775 0-8.637 3.99-8.637 8.865 0 4.873 3.862 8.8 8.637 8.8 3.79 0 6.59-1.906 7.813-4.815a.672.672 0 0 0-.615-.942h-3.287a.664.664 0 0 0-.553.29c-.762 1.14-2.091 1.67-3.391 1.67-1.472 0-2.748-.654-3.598-1.798l11.397-4.79a.675.675 0 0 0 .391-.775M83.174 36.93c-2.29 0-4.154-1.964-4.154-4.808 0-2.913 1.864-4.94 4.154-4.94s4.154 2.027 4.154 4.94c0 2.844-1.865 4.808-4.154 4.808m0-13.706c-4.678 0-8.473 3.827-8.473 8.865 0 5.036 3.795 8.8 8.473 8.8 4.677 0 8.506-3.764 8.506-8.8 0-5.038-3.83-8.865-8.506-8.865" fill="#fff"/>
    <path d="M48.041 45.856a.888.888 0 0 0-.671-1.47h-3.181a.887.887 0 0 0-.604.234 17.247 17.247 0 0 1-11.649 4.537c-9.496 0-17.223-7.725-17.223-17.22 0-9.498 7.727-17.224 17.223-17.224 4.629 0 8.783 1.657 11.7 4.664 2.892 2.983 4.406 7.141 4.265 11.709-.085 2.665-1.567 5.501-4.15 5.501h-2.42c-.86 0-1.85-.263-1.85-2.32V21.029a.91.91 0 0 0-.91-.908h-2.565a.911.911 0 0 0-.911.908v13.24c0 4.059 2.275 6.389 6.239 6.389h2.416c5.025 0 8.122-4.858 8.218-9.554.113-5.694-1.85-10.895-5.525-14.647-3.673-3.746-8.825-5.81-14.508-5.81-11.738 0-21.29 9.55-21.29 21.291 0 11.739 9.552 21.29 21.291 21.29 6.21 0 12.095-2.753 16.104-7.37m-17.894-5.2a.894.894 0 0 1-.89-.892v-7.629c0-2.023-1.441-2.327-2.3-2.327-1.401 0-2.38.957-2.38 2.327v7.629a.894.894 0 0 1-.892.893h-2.483a.894.894 0 0 1-.891-.893v-7.548c0-3.88 2.733-6.59 6.646-6.59 3.987 0 6.562 2.586 6.562 6.59v7.548a.893.893 0 0 1-.89.893z" fill="#fd0"/>
</svg>
